FPGA/testbenches/TopEntity/top_entity_signals.vcd
$date
	Fri Jul  4 12:01:10 2025
$end
$version
	Icarus Verilog
$end
$timescale
	1ps
$end
$scope module TopEntity_tb $end
$var wire 1 ! led3 $end
$var wire 1 " led2 $end
$var wire 1 # led1 $end
$var wire 1 $ YAW_PWM_VAL $end
$var wire 1 % YAW_DIRB $end
$var wire 1 & YAW_DIRA $end
$var wire 1 ' SPI_POCI $end
$var wire 1 ( PITCH_PWM_VAL $end
$var wire 1 ) PITCH_DIRB $end
$var wire 1 * PITCH_DIRA $end
$var parameter 32 + CLK_FREQ $end
$var parameter 32 , CLK_PERIOD_NS $end
$var parameter 32 - COUNTER_W $end
$var parameter 32 . PWM_FREQ $end
$var parameter 32 / SPI_CLK_PERIOD_NS $end
$var reg 1 0 PITCH_ENC_A $end
$var reg 1 1 PITCH_ENC_B $end
$var reg 1 2 SPI_CLK $end
$var reg 1 3 SPI_CS $end
$var reg 1 4 SPI_PICO $end
$var reg 1 5 YAW_ENC_A $end
$var reg 1 6 YAW_ENC_B $end
$var reg 1 7 btn1 $end
$var reg 1 8 clk $end
$var integer 32 9 i [31:0] $end
$var integer 32 : received_pitch [31:0] $end
$var integer 32 ; received_yaw [31:0] $end
$scope module dut $end
$var wire 1 0 PITCH_ENC_A $end
$var wire 1 1 PITCH_ENC_B $end
$var wire 1 2 SPI_CLK $end
$var wire 1 3 SPI_CS $end
$var wire 1 < SPI_CS_active $end
$var wire 1 4 SPI_PICO $end
$var wire 1 5 YAW_ENC_A $end
$var wire 1 6 YAW_ENC_B $end
$var wire 1 7 btn1 $end
$var wire 1 8 clk $end
$var wire 32 = position_yaw [31:0] $end
$var wire 32 > position_pitch [31:0] $end
$var wire 2 ? dir_yaw [1:0] $end
$var wire 2 @ dir_pitch [1:0] $end
$var wire 1 $ YAW_PWM_VAL $end
$var wire 1 % YAW_DIRB $end
$var wire 1 & YAW_DIRA $end
$var wire 1 ' SPI_POCI $end
$var wire 1 A SPI_PICO_data $end
$var wire 1 B SPI_CS_startmessage $end
$var wire 1 C SPI_CS_endmessage $end
$var wire 1 D SPI_CLK_risingedge $end
$var wire 1 E SPI_CLK_fallingedge $end
$var wire 1 ( PITCH_PWM_VAL $end
$var wire 1 ) PITCH_DIRB $end
$var wire 1 * PITCH_DIRA $end
$var parameter 32 F CLK_FREQ $end
$var parameter 32 G COUNTER_W $end
$var parameter 32 H MAX_BYTES $end
$var parameter 32 I PWM_FREQ $end
$var reg 3 J SPI_CLKr [2:0] $end
$var reg 3 K SPI_CSr [2:0] $end
$var reg 2 L SPI_PICOr [1:0] $end
$var reg 3 M bit_cnt [2:0] $end
$var reg 4 N byte_cnt [3:0] $end
$var reg 1 O direction_pitch $end
$var reg 1 P direction_yaw $end
$var reg 12 Q duty_cycle_pitch [11:0] $end
$var reg 12 R duty_cycle_yaw [11:0] $end
$var reg 1 S enable_pitch $end
$var reg 1 T enable_yaw $end
$var reg 1 # led1 $end
$var reg 1 " led2 $end
$var reg 1 ! led3 $end
$var reg 32 U led3_counter [31:0] $end
$var reg 8 V rx_shift [7:0] $end
$var reg 8 W tx_shift [7:0] $end
$scope module pitch_encoder $end
$var wire 1 0 ENCA_raw $end
$var wire 1 1 ENCB_raw $end
$var wire 1 8 clk $end
$var wire 1 7 reset $end
$var wire 1 X encB $end
$var wire 1 Y encA $end
$var wire 2 Z enc [1:0] $end
$var wire 1 [ change $end
$var parameter 32 \ CLK_FREQ $end
$var parameter 32 ] NO_MOVEMENT_THRESHOLD $end
$var reg 2 ^ DIR [1:0] $end
$var reg 32 _ idle_cnt [31:0] $end
$var reg 2 ` next_dir [1:0] $end
$var reg 2 a old_enc [1:0] $end
$var reg 32 b position [31:0] $end
$var reg 2 c syncA [1:0] $end
$var reg 2 d syncB [1:0] $end
$scope function code_lut $end
$var reg 2 e lookup [1:0] $end
$var reg 2 f new_enc [1:0] $end
$var reg 2 g old_dir [1:0] $end
$var reg 2 h old_enc [1:0] $end
$upscope $end
$upscope $end
$scope module pitch_pwm $end
$var wire 1 8 clk $end
$var wire 1 O direction $end
$var wire 12 i duty_cycle [11:0] $end
$var wire 1 S enable $end
$var wire 1 7 reset $end
$var parameter 32 j CLK_FREQ $end
$var parameter 32 k COUNTER_W $end
$var parameter 32 l PERIOD $end
$var parameter 32 m PWM_FREQ $end
$var reg 32 n counter [31:0] $end
$var reg 1 * ina $end
$var reg 1 ) inb $end
$var reg 1 ( pwm_out $end
$upscope $end
$scope module yaw_encoder $end
$var wire 1 5 ENCA_raw $end
$var wire 1 6 ENCB_raw $end
$var wire 1 8 clk $end
$var wire 1 7 reset $end
$var wire 1 o encB $end
$var wire 1 p encA $end
$var wire 2 q enc [1:0] $end
$var wire 1 r change $end
$var parameter 32 s CLK_FREQ $end
$var parameter 32 t NO_MOVEMENT_THRESHOLD $end
$var reg 2 u DIR [1:0] $end
$var reg 32 v idle_cnt [31:0] $end
$var reg 2 w next_dir [1:0] $end
$var reg 2 x old_enc [1:0] $end
$var reg 32 y position [31:0] $end
$var reg 2 z syncA [1:0] $end
$var reg 2 { syncB [1:0] $end
$scope function code_lut $end
$var reg 2 | lookup [1:0] $end
$var reg 2 } new_enc [1:0] $end
$var reg 2 ~ old_dir [1:0] $end
$var reg 2 !" old_enc [1:0] $end
$upscope $end
$upscope $end
$scope module yaw_pwm $end
$var wire 1 8 clk $end
$var wire 1 P direction $end
$var wire 12 "" duty_cycle [11:0] $end
$var wire 1 T enable $end
$var wire 1 7 reset $end
$var parameter 32 #" CLK_FREQ $end
$var parameter 32 $" COUNTER_W $end
$var parameter 32 %" PERIOD $end
$var parameter 32 &" PWM_FREQ $end
$var reg 32 '" counter [31:0] $end
$var reg 1 & ina $end
$var reg 1 % inb $end
$var reg 1 $ pwm_out $end
$upscope $end
$upscope $end
$scope task spi_transaction $end
$var reg 8 (" received_byte [7:0] $end
$var integer 32 )" i [31:0] $end
$var integer 32 *" j [31:0] $end
$var integer 32 +" num_bytes [31:0] $end
$upscope $end
$upscope $end
$enddefinitions $end
$comment Show the parameter values. $end
$dumpall
b100111000100000 &"
b10011100010 %"
b1100 $"
b1011111010111100001000000 #"
b1111010000100100000 t
b10111110101111000010000000 s
b100111000100000 m
b10011100010 l
b1100 k
b1011111010111100001000000 j
b1111010000100100000 ]
b10111110101111000010000000 \
b100111000100000 I
b1010 H
b1100 G
b1011111010111100001000000 F
b110010000 /
b100111000100000 .
b1100 -
b101000 ,
b1011111010111100001000000 +
$end
#0
$dumpvars
bx +"
bx *"
bx )"
bx ("
b0 '"
b0 ""
bx !"
bx ~
bx }
bx |
b0 {
b0 z
b0 y
b0 x
bx w
b0 v
b0 u
0r
b0 q
0p
0o
b0 n
b0 i
bx h
bx g
bx f
bx e
b0 d
b0 c
b0 b
b0 a
bx `
b0 _
b0 ^
0[
b0 Z
0Y
0X
bx W
bx V
b0 U
0T
0S
b0 R
b0 Q
0P
0O
b0 N
b0 M
bx L
bx K
bx J
xE
xD
xC
xB
xA
b0 @
b0 ?
b0 >
b0 =
x<
bx ;
bx :
bx 9
08
17
06
05
04
13
02
01
00
0*
0)
0(
x'
0&
0%
0$
0#
0"
0!
$end
#20000
bx1 K
bx0 J
bx0 L
18
#40000
08
#60000
0<
0A
0B
0D
b0 L
bx11 K
bx00 J
18
#80000
08
#100000
0C
0E
0'
b111 K
b0 J
b0 W
b0 V
18
#120000
08
#140000
18
#160000
08
#180000
18
#200000
08
#220000
18
#240000
08
#260000
18
#280000
08
#300000
18
#320000
08
#340000
18
#360000
08
#380000
18
#400000
08
#420000
18
#440000
08
#460000
18
#480000
08
#500000
18
#520000
08
#540000
18
#560000
08
#580000
18
#600000
08
#620000
18
#640000
08
#660000
18
#680000
08
#700000
18
#720000
08
#740000
18
#760000
08
#780000
18
#800000
08
07
#820000
b1 v
b1 _
b1 U
18
#840000
08
#860000
b10 _
b10 v
b10 U
18
#880000
08
#900000
b11 v
b11 _
b11 U
18
#920000
08
#940000
b100 _
b100 v
b100 U
18
#960000
08
#980000
b101 v
b101 _
b101 U
18
#1000000
08
#1020000
b110 _
b110 v
b110 U
18
#1040000
08
#1060000
b111 v
b111 _
b111 U
18
#1080000
08
#1100000
b1000 _
b1000 v
b1000 U
18
#1120000
08
#1140000
b1001 v
b1001 _
b1001 U
18
#1160000
08
#1180000
b1010 _
b1010 v
b1010 U
18
#1200000
08
#1220000
b1011 v
b1011 _
b1011 U
18
#1240000
08
#1260000
b1100 _
b1100 v
b1100 U
18
#1280000
08
#1300000
b1101 v
b1101 _
b1101 U
18
#1320000
08
#1340000
b1110 _
b1110 v
b1110 U
18
#1360000
08
#1380000
b1111 v
b1111 _
b1111 U
18
#1400000
08
#1420000
b10000 _
b10000 v
b10000 U
18
#1440000
08
#1460000
b10001 v
b10001 _
b10001 U
18
#1480000
08
#1500000
b10010 _
b10010 v
b10010 U
18
#1520000
08
#1540000
b10011 v
b10011 _
b10011 U
18
#1560000
08
#1580000
b10100 _
b10100 v
b10100 U
18
#1600000
03
08
b101 +"
#1620000
b10101 v
b10101 _
b110 K
b10101 U
18
#1640000
08
#1660000
1<
1B
b10110 _
b10110 v
b10110 U
b100 K
18
#1680000
08
#1700000
0B
b10111 v
b10111 _
b0 K
b10111 U
18
#1720000
08
#1740000
b11000 _
b11000 v
b11000 U
18
#1760000
08
#1780000
b11001 v
b11001 _
b11001 U
18
#1800000
08
#1820000
b11010 _
b11010 v
b11010 U
18
#1840000
08
#1860000
b11011 v
b11011 _
b11011 U
18
#1880000
08
#1900000
b11100 _
b11100 v
b11100 U
18
#1920000
08
#1940000
b11101 v
b11101 _
b11101 U
18
#1960000
08
#1980000
b11110 _
b11110 v
b11110 U
18
#2000000
08
b111 *"
b0 ("
b0 )"
#2020000
b11111 v
b11111 _
b11111 U
18
#2040000
08
#2060000
b100000 _
b100000 v
b100000 U
18
#2080000
08
#2100000
b100001 v
b100001 _
b100001 U
18
#2120000
08
#2140000
b100010 _
b100010 v
b100010 U
18
#2160000
08
#2180000
b100011 v
b100011 _
b100011 U
18
#2200000
12
08
#2220000
b100100 _
b100100 v
b100100 U
b1 J
18
#2240000
08
#2260000
1D
b100101 v
b100101 _
b11 J
b100101 U
18
#2280000
08
#2300000
0D
b100110 _
b100110 v
b100110 U
b1 M
b111 J
18
#2320000
08
#2340000
b100111 v
b100111 _
b100111 U
18
#2360000
08
#2380000
b101000 _
b101000 v
b101000 U
18
#2400000
02
08
b110 *"
#2420000
b101001 v
b101001 _
b110 J
b101001 U
18
#2440000
08
#2460000
1E
b101010 _
b101010 v
b101010 U
b100 J
18
#2480000
08
#2500000
0E
b101011 v
b101011 _
b0 J
b101011 U
18
#2520000
08
#2540000
b101100 _
b101100 v
b101100 U
18
#2560000
08
#2580000
b101101 v
b101101 _
b101101 U
18
#2600000
12
08
#2620000
b101110 _
b101110 v
b101110 U
b1 J
18
#2640000
08
#2660000
1D
b101111 v
b101111 _
b11 J
b101111 U
18
#2680000
08
#2700000
0D
b110000 _
b110000 v
b110000 U
b10 M
b111 J
18
#2720000
08
#2740000
b110001 v
b110001 _
b110001 U
18
#2760000
08
#2780000
b110010 _
b110010 v
b110010 U
18
#2800000
02
08
b101 *"
#2820000
b110011 v
b110011 _
b110 J
b110011 U
18
#2840000
08
#2860000
1E
b110100 _
b110100 v
b110100 U
b100 J
18
#2880000
08
#2900000
0E
b110101 v
b110101 _
b0 J
b110101 U
18
#2920000
08
#2940000
b110110 _
b110110 v
b110110 U
18
#2960000
08
#2980000
b110111 v
b110111 _
b110111 U
18
#3000000
12
08
#3020000
b111000 _
b111000 v
b111000 U
b1 J
18
#3040000
08
#3060000
1D
b111001 v
b111001 _
b11 J
b111001 U
18
#3080000
08
#3100000
0D
b111010 _
b111010 v
b111010 U
b11 M
b111 J
18
#3120000
08
#3140000
b111011 v
b111011 _
b111011 U
18
#3160000
08
#3180000
b111100 _
b111100 v
b111100 U
18
#3200000
14
02
08
b100 *"
#3220000
b111101 v
b111101 _
b110 J
b1 L
b111101 U
18
#3240000
08
#3260000
1A
1E
b111110 _
b111110 v
b111110 U
b11 L
b100 J
18
#3280000
08
#3300000
0E
b111111 v
b111111 _
b0 J
b111111 U
18
#3320000
08
#3340000
b1000000 _
b1000000 v
b1000000 U
18
#3360000
08
#3380000
b1000001 v
b1000001 _
b1000001 U
18
#3400000
12
08
#3420000
b1000010 _
b1000010 v
b1000010 U
b1 J
18
#3440000
08
#3460000
1D
b1000011 v
b1000011 _
b11 J
b1000011 U
18
#3480000
08
#3500000
0D
b1000100 _
b1000100 v
b1000100 U
b1 V
b100 M
b111 J
18
#3520000
08
#3540000
b1000101 v
b1000101 _
b1000101 U
18
#3560000
08
#3580000
b1000110 _
b1000110 v
b1000110 U
18
#3600000
04
02
08
b11 *"
#3620000
b1000111 v
b1000111 _
b110 J
b10 L
b1000111 U
18
#3640000
08
#3660000
0A
1E
b1001000 _
b1001000 v
b1001000 U
b0 L
b100 J
18
#3680000
08
#3700000
0E
b1001001 v
b1001001 _
b0 J
b1001001 U
18
#3720000
08
#3740000
b1001010 _
b1001010 v
b1001010 U
18
#3760000
08
#3780000
b1001011 v
b1001011 _
b1001011 U
18
#3800000
12
08
#3820000
b1001100 _
b1001100 v
b1001100 U
b1 J
18
#3840000
08
#3860000
1D
b1001101 v
b1001101 _
b11 J
b1001101 U
18
#3880000
08
#3900000
0D
b1001110 _
b1001110 v
b1001110 U
b10 V
b101 M
b111 J
18
#3920000
08
#3940000
b1001111 v
b1001111 _
b1001111 U
18
#3960000
08
#3980000
b1010000 _
b1010000 v
b1010000 U
18
#4000000
02
08
b10 *"
#4020000
b1010001 v
b1010001 _
b110 J
b1010001 U
18
#4040000
08
#4060000
1E
b1010010 _
b1010010 v
b1010010 U
b100 J
18
#4080000
08
#4100000
0E
b1010011 v
b1010011 _
b0 J
b1010011 U
18
#4120000
08
#4140000
b1010100 _
b1010100 v
b1010100 U
18
#4160000
08
#4180000
b1010101 v
b1010101 _
b1010101 U
18
#4200000
12
08
#4220000
b1010110 _
b1010110 v
b1010110 U
b1 J
18
#4240000
08
#4260000
1D
b1010111 v
b1010111 _
b11 J
b1010111 U
18
#4280000
08
#4300000
0D
b1011000 _
b1011000 v
b1011000 U
b100 V
b110 M
b111 J
18
#4320000
08
#4340000
b1011001 v
b1011001 _
b1011001 U
18
#4360000
08
#4380000
b1011010 _
b1011010 v
b1011010 U
18
#4400000
14
02
08
b1 *"
#4420000
b1011011 v
b1011011 _
b110 J
b1 L
b1011011 U
18
#4440000
08
#4460000
1A
1E
b1011100 _
b1011100 v
b1011100 U
b11 L
b100 J
18
#4480000
08
#4500000
0E
b1011101 v
b1011101 _
b0 J
b1011101 U
18
#4520000
08
#4540000
b1011110 _
b1011110 v
b1011110 U
18
#4560000
08
#4580000
b1011111 v
b1011111 _
b1011111 U
18
#4600000
12
08
#4620000
b1100000 _
b1100000 v
b1100000 U
b1 J
18
#4640000
08
#4660000
1D
b1100001 v
b1100001 _
b11 J
b1100001 U
18
#4680000
08
#4700000
0D
b1100010 _
b1100010 v
b1100010 U
b1001 V
b111 M
b111 J
18
#4720000
08
#4740000
b1100011 v
b1100011 _
b1100011 U
18
#4760000
08
#4780000
b1100100 _
b1100100 v
b1100100 U
18
#4800000
04
02
08
b0 *"
#4820000
b1100101 v
b1100101 _
b110 J
b10 L
b1100101 U
18
#4840000
08
#4860000
0A
1E
b1100110 _
b1100110 v
b1100110 U
b0 L
b100 J
18
#4880000
08
#4900000
0E
b1100111 v
b1100111 _
b0 J
b1100111 U
18
#4920000
08
#4940000
b1101000 _
b1101000 v
b1101000 U
18
#4960000
08
#4980000
b1101001 v
b1101001 _
b1101001 U
18
#5000000
12
08
#5020000
b1101010 _
b1101010 v
b1101010 U
b1 J
18
#5040000
08
#5060000
1D
b1101011 v
b1101011 _
b11 J
b1101011 U
18
#5080000
08
#5100000
0D
b1101100 _
b1101100 v
b1101100 U
b1 N
b10010 V
b0 M
b111 J
18
#5120000
08
#5140000
b1101101 v
b1101101 _
b1101101 U
18
#5160000
08
#5180000
b1101110 _
b1101110 v
b1101110 U
18
#5200000
02
08
b1 )"
b111 *"
#5220000
b1101111 v
b1101111 _
b110 J
b1101111 U
18
#5240000
08
#5260000
1E
b1110000 _
b1110000 v
b1110000 U
b100 J
18
#5280000
08
#5300000
0E
b1110001 v
b1110001 _
b0 J
b1110001 U
18
#5320000
08
#5340000
b1110010 _
b1110010 v
b1110010 U
18
#5360000
08
#5380000
b1110011 v
b1110011 _
b1110011 U
18
#5400000
12
08
#5420000
b1110100 _
b1110100 v
b1110100 U
b1 J
18
#5440000
08
#5460000
1D
b1110101 v
b1110101 _
b11 J
b1110101 U
18
#5480000
08
#5500000
0D
b1110110 _
b1110110 v
b1110110 U
b100100 V
b1 M
b111 J
18
#5520000
08
#5540000
b1110111 v
b1110111 _
b1110111 U
18
#5560000
08
#5580000
b1111000 _
b1111000 v
b1111000 U
18
#5600000
02
08
b110 *"
#5620000
b1111001 v
b1111001 _
b110 J
b1111001 U
18
#5640000
08
#5660000
1E
b1111010 _
b1111010 v
b1111010 U
b100 J
18
#5680000
08
#5700000
0E
b1111011 v
b1111011 _
b0 J
b1111011 U
18
#5720000
08
#5740000
b1111100 _
b1111100 v
b1111100 U
18
#5760000
08
#5780000
b1111101 v
b1111101 _
b1111101 U
18
#5800000
12
08
#5820000
b1111110 _
b1111110 v
b1111110 U
b1 J
18
#5840000
08
#5860000
1D
b1111111 v
b1111111 _
b11 J
b1111111 U
18
#5880000
08
#5900000
0D
b10000000 _
b10000000 v
b10000000 U
b1001000 V
b10 M
b111 J
18
#5920000
08
#5940000
b10000001 v
b10000001 _
b10000001 U
18
#5960000
08
#5980000
b10000010 _
b10000010 v
b10000010 U
18
#6000000
02
08
b101 *"
#6020000
b10000011 v
b10000011 _
b110 J
b10000011 U
18
#6040000
08
#6060000
1E
b10000100 _
b10000100 v
b10000100 U
b100 J
18
#6080000
08
#6100000
0E
b10000101 v
b10000101 _
b0 J
b10000101 U
18
#6120000
08
#6140000
b10000110 _
b10000110 v
b10000110 U
18
#6160000
08
#6180000
b10000111 v
b10000111 _
b10000111 U
18
#6200000
12
08
#6220000
b10001000 _
b10001000 v
b10001000 U
b1 J
18
#6240000
08
#6260000
1D
b10001001 v
b10001001 _
b11 J
b10001001 U
18
#6280000
08
#6300000
0D
b10001010 _
b10001010 v
b10001010 U
b10010000 V
b11 M
b111 J
18
#6320000
08
#6340000
b10001011 v
b10001011 _
b10001011 U
18
#6360000
08
#6380000
b10001100 _
b10001100 v
b10001100 U
18
#6400000
02
08
b100 *"
#6420000
b10001101 v
b10001101 _
b110 J
b10001101 U
18
#6440000
08
#6460000
1E
b10001110 _
b10001110 v
b10001110 U
b100 J
18
#6480000
08
#6500000
0E
b10001111 v
b10001111 _
b0 J
b10001111 U
18
#6520000
08
#6540000
b10010000 _
b10010000 v
b10010000 U
18
#6560000
08
#6580000
b10010001 v
b10010001 _
b10010001 U
18
#6600000
12
08
#6620000
b10010010 _
b10010010 v
b10010010 U
b1 J
18
#6640000
08
#6660000
1D
b10010011 v
b10010011 _
b11 J
b10010011 U
18
#6680000
08
#6700000
0D
b10010100 _
b10010100 v
b10010100 U
b100000 V
b100 M
b111 J
18
#6720000
08
#6740000
b10010101 v
b10010101 _
b10010101 U
18
#6760000
08
#6780000
b10010110 _
b10010110 v
b10010110 U
18
#6800000
02
08
b11 *"
#6820000
b10010111 v
b10010111 _
b110 J
b10010111 U
18
#6840000
08
#6860000
1E
b10011000 _
b10011000 v
b10011000 U
b100 J
18
#6880000
08
#6900000
0E
b10011001 v
b10011001 _
b0 J
b10011001 U
18
#6920000
08
#6940000
b10011010 _
b10011010 v
b10011010 U
18
#6960000
08
#6980000
b10011011 v
b10011011 _
b10011011 U
18
#7000000
12
08
#7020000
b10011100 _
b10011100 v
b10011100 U
b1 J
18
#7040000
08
#7060000
1D
b10011101 v
b10011101 _
b11 J
b10011101 U
18
#7080000
08
#7100000
0D
b10011110 _
b10011110 v
b10011110 U
b1000000 V
b101 M
b111 J
18
#7120000
08
#7140000
b10011111 v
b10011111 _
b10011111 U
18
#7160000
08
#7180000
b10100000 _
b10100000 v
b10100000 U
18
#7200000
02
08
b10 *"
#7220000
b10100001 v
b10100001 _
b110 J
b10100001 U
18
#7240000
08
#7260000
1E
b10100010 _
b10100010 v
b10100010 U
b100 J
18
#7280000
08
#7300000
0E
b10100011 v
b10100011 _
b0 J
b10100011 U
18
#7320000
08
#7340000
b10100100 _
b10100100 v
b10100100 U
18
#7360000
08
#7380000
b10100101 v
b10100101 _
b10100101 U
18
#7400000
12
08
#7420000
b10100110 _
b10100110 v
b10100110 U
b1 J
18
#7440000
08
#7460000
1D
b10100111 v
b10100111 _
b11 J
b10100111 U
18
#7480000
08
#7500000
0D
b10101000 _
b10101000 v
b10101000 U
b10000000 V
b110 M
b111 J
18
#7520000
08
#7540000
b10101001 v
b10101001 _
b10101001 U
18
#7560000
08
#7580000
b10101010 _
b10101010 v
b10101010 U
18
#7600000
02
08
b1 *"
#7620000
b10101011 v
b10101011 _
b110 J
b10101011 U
18
#7640000
08
#7660000
1E
b10101100 _
b10101100 v
b10101100 U
b100 J
18
#7680000
08
#7700000
0E
b10101101 v
b10101101 _
b0 J
b10101101 U
18
#7720000
08
#7740000
b10101110 _
b10101110 v
b10101110 U
18
#7760000
08
#7780000
b10101111 v
b10101111 _
b10101111 U
18
#7800000
12
08
#7820000
b10110000 _
b10110000 v
b10110000 U
b1 J
18
#7840000
08
#7860000
1D
b10110001 v
b10110001 _
b11 J
b10110001 U
18
#7880000
08
#7900000
0D
b10110010 _
b10110010 v
b10110010 U
b0 V
b111 M
b111 J
18
#7920000
08
#7940000
b10110011 v
b10110011 _
b10110011 U
18
#7960000
08
#7980000
b10110100 _
b10110100 v
b10110100 U
18
#8000000
02
08
b0 *"
#8020000
b10110101 v
b10110101 _
b110 J
b10110101 U
18
#8040000
08
#8060000
1E
b10110110 _
b10110110 v
b10110110 U
b100 J
18
#8080000
08
#8100000
0E
b10110111 v
b10110111 _
b0 J
b10110111 U
18
#8120000
08
#8140000
b10111000 _
b10111000 v
b10111000 U
18
#8160000
08
#8180000
b10111001 v
b10111001 _
b10111001 U
18
#8200000
12
08
#8220000
b10111010 _
b10111010 v
b10111010 U
b1 J
18
#8240000
08
#8260000
1D
b10111011 v
b10111011 _
b11 J
b10111011 U
18
#8280000
08
#8300000
0D
b10111100 _
b10111100 v
b10111100 U
b10 N
b0 M
b111 J
18
#8320000
08
#8340000
b10111101 v
b10111101 _
b10111101 U
18
#8360000
08
#8380000
b10111110 _
b10111110 v
b10111110 U
18
#8400000
14
02
08
b10 )"
b111 *"
#8420000
b10111111 v
b10111111 _
b110 J
b1 L
b10111111 U
18
#8440000
08
#8460000
1A
1E
b11000000 _
b11000000 v
b11000000 U
b11 L
b100 J
18
#8480000
08
#8500000
0E
b11000001 v
b11000001 _
b0 J
b11000001 U
18
#8520000
08
#8540000
b11000010 _
b11000010 v
b11000010 U
18
#8560000
08
#8580000
b11000011 v
b11000011 _
b11000011 U
18
#8600000
12
08
#8620000
b11000100 _
b11000100 v
b11000100 U
b1 J
18
#8640000
08
#8660000
1D
b11000101 v
b11000101 _
b11 J
b11000101 U
18
#8680000
08
#8700000
0D
b11000110 _
b11000110 v
b11000110 U
b1 V
b1 M
b111 J
18
#8720000
08
#8740000
b11000111 v
b11000111 _
b11000111 U
18
#8760000
08
#8780000
b11001000 _
b11001000 v
b11001000 U
18
#8800000
04
02
08
b110 *"
#8820000
b11001001 v
b11001001 _
b110 J
b10 L
b11001001 U
18
#8840000
08
#8860000
0A
1E
b11001010 _
b11001010 v
b11001010 U
b0 L
b100 J
18
#8880000
08
#8900000
0E
b11001011 v
b11001011 _
b0 J
b11001011 U
18
#8920000
08
#8940000
b11001100 _
b11001100 v
b11001100 U
18
#8960000
08
#8980000
b11001101 v
b11001101 _
b11001101 U
18
#9000000
12
08
#9020000
b11001110 _
b11001110 v
b11001110 U
b1 J
18
#9040000
08
#9060000
1D
b11001111 v
b11001111 _
b11 J
b11001111 U
18
#9080000
08
#9100000
0D
b11010000 _
b11010000 v
b11010000 U
b10 V
b10 M
b111 J
18
#9120000
08
#9140000
b11010001 v
b11010001 _
b11010001 U
18
#9160000
08
#9180000
b11010010 _
b11010010 v
b11010010 U
18
#9200000
14
02
08
b101 *"
#9220000
b11010011 v
b11010011 _
b110 J
b1 L
b11010011 U
18
#9240000
08
#9260000
1A
1E
b11010100 _
b11010100 v
b11010100 U
b11 L
b100 J
18
#9280000
08
#9300000
0E
b11010101 v
b11010101 _
b0 J
b11010101 U
18
#9320000
08
#9340000
b11010110 _
b11010110 v
b11010110 U
18
#9360000
08
#9380000
b11010111 v
b11010111 _
b11010111 U
18
#9400000
12
08
#9420000
b11011000 _
b11011000 v
b11011000 U
b1 J
18
#9440000
08
#9460000
1D
b11011001 v
b11011001 _
b11 J
b11011001 U
18
#9480000
08
#9500000
0D
b11011010 _
b11011010 v
b11011010 U
b101 V
b11 M
b111 J
18
#9520000
08
#9540000
b11011011 v
b11011011 _
b11011011 U
18
#9560000
08
#9580000
b11011100 _
b11011100 v
b11011100 U
18
#9600000
04
02
08
b100 *"
#9620000
b11011101 v
b11011101 _
b110 J
b10 L
b11011101 U
18
#9640000
08
#9660000
0A
1E
b11011110 _
b11011110 v
b11011110 U
b0 L
b100 J
18
#9680000
08
#9700000
0E
b11011111 v
b11011111 _
b0 J
b11011111 U
18
#9720000
08
#9740000
b11100000 _
b11100000 v
b11100000 U
18
#9760000
08
#9780000
b11100001 v
b11100001 _
b11100001 U
18
#9800000
12
08
#9820000
b11100010 _
b11100010 v
b11100010 U
b1 J
18
#9840000
08
#9860000
1D
b11100011 v
b11100011 _
b11 J
b11100011 U
18
#9880000
08
#9900000
0D
b11100100 _
b11100100 v
b11100100 U
b1010 V
b100 M
b111 J
18
#9920000
08
#9940000
b11100101 v
b11100101 _
b11100101 U
18
#9960000
08
#9980000
b11100110 _
b11100110 v
b11100110 U
18
#10000000
02
08
b11 *"
#10020000
b11100111 v
b11100111 _
b110 J
b11100111 U
18
#10040000
08
#10060000
1E
b11101000 _
b11101000 v
b11101000 U
b100 J
18
#10080000
08
#10100000
0E
b11101001 v
b11101001 _
b0 J
b11101001 U
18
#10120000
08
#10140000
b11101010 _
b11101010 v
b11101010 U
18
#10160000
08
#10180000
b11101011 v
b11101011 _
b11101011 U
18
#10200000
12
08
#10220000
b11101100 _
b11101100 v
b11101100 U
b1 J
18
#10240000
08
#10260000
1D
b11101101 v
b11101101 _
b11 J
b11101101 U
18
#10280000
08
#10300000
0D
b11101110 _
b11101110 v
b11101110 U
b10100 V
b101 M
b111 J
18
#10320000
08
#10340000
b11101111 v
b11101111 _
b11101111 U
18
#10360000
08
#10380000
b11110000 _
b11110000 v
b11110000 U
18
#10400000
02
08
b10 *"
#10420000
b11110001 v
b11110001 _
b110 J
b11110001 U
18
#10440000
08
#10460000
1E
b11110010 _
b11110010 v
b11110010 U
b100 J
18
#10480000
08
#10500000
0E
b11110011 v
b11110011 _
b0 J
b11110011 U
18
#10520000
08
#10540000
b11110100 _
b11110100 v
b11110100 U
18
#10560000
08
#10580000
b11110101 v
b11110101 _
b11110101 U
18
#10600000
12
08
#10620000
b11110110 _
b11110110 v
b11110110 U
b1 J
18
#10640000
08
#10660000
1D
b11110111 v
b11110111 _
b11 J
b11110111 U
18
#10680000
08
#10700000
0D
b11111000 _
b11111000 v
b11111000 U
b101000 V
b110 M
b111 J
18
#10720000
08
#10740000
b11111001 v
b11111001 _
b11111001 U
18
#10760000
08
#10780000
b11111010 _
b11111010 v
b11111010 U
18
#10800000
02
08
b1 *"
#10820000
b11111011 v
b11111011 _
b110 J
b11111011 U
18
#10840000
08
#10860000
1E
b11111100 _
b11111100 v
b11111100 U
b100 J
18
#10880000
08
#10900000
0E
b11111101 v
b11111101 _
b0 J
b11111101 U
18
#10920000
08
#10940000
b11111110 _
b11111110 v
b11111110 U
18
#10960000
08
#10980000
b11111111 v
b11111111 _
b11111111 U
18
#11000000
12
08
#11020000
b100000000 _
b100000000 v
b100000000 U
b1 J
18
#11040000
08
#11060000
1D
b100000001 v
b100000001 _
b11 J
b100000001 U
18
#11080000
08
#11100000
0D
b100000010 _
b100000010 v
b100000010 U
b1010000 V
b111 M
b111 J
18
#11120000
08
#11140000
b100000011 v
b100000011 _
b100000011 U
18
#11160000
08
#11180000
b100000100 _
b100000100 v
b100000100 U
18
#11200000
02
08
b0 *"
#11220000
b100000101 v
b100000101 _
b110 J
b100000101 U
18
#11240000
08
#11260000
1E
b100000110 _
b100000110 v
b100000110 U
b100 J
18
#11280000
08
#11300000
0E
b100000111 v
b100000111 _
b0 J
b100000111 U
18
#11320000
08
#11340000
b100001000 _
b100001000 v
b100001000 U
18
#11360000
08
#11380000
b100001001 v
b100001001 _
b100001001 U
18
#11400000
12
08
#11420000
b100001010 _
b100001010 v
b100001010 U
b1 J
18
#11440000
08
#11460000
1D
b100001011 v
b100001011 _
b11 J
b100001011 U
18
#11480000
08
#11500000
0D
b100001100 _
b100001100 v
b100001100 U
b11 N
b10100000 V
b0 M
b111 J
18
#11520000
08
#11540000
b100001101 v
b100001101 _
b100001101 U
18
#11560000
08
#11580000
b100001110 _
b100001110 v
b100001110 U
18
#11600000
02
08
b11 )"
b111 *"
#11620000
b100001111 v
b100001111 _
b110 J
b100001111 U
18
#11640000
08
#11660000
1E
b100010000 _
b100010000 v
b100010000 U
b100 J
18
#11680000
08
#11700000
0E
b100010001 v
b100010001 _
b0 J
b100010001 U
18
#11720000
08
#11740000
b100010010 _
b100010010 v
b100010010 U
18
